%YAML 1.1
%TAG !u! tag:unity3d.com,2011:
--- !u!1001 &736090067643468315
PrefabInstance:
  m_ObjectHideFlags: 0
  serializedVersion: 2
  m_Modification:
    m_TransformParent: {fileID: 0}
    m_Modifications:
    - target: {fileID: 5194079209393281617, guid: 6a86c089e3156844abe400fdb9d28b9a, type: 3}
      propertyPath: score
      value: 25
      objectReference: {fileID: 0}
    - target: {fileID: 5194079209393281617, guid: 6a86c089e3156844abe400fdb9d28b9a, type: 3}
      propertyPath: color.a
      value: 1
      objectReference: {fileID: 0}
    - target: {fileID: 5194079209393281617, guid: 6a86c089e3156844abe400fdb9d28b9a, type: 3}
      propertyPath: color.b
      value: 0.6415094
      objectReference: {fileID: 0}
    - target: {fileID: 5194079209393281617, guid: 6a86c089e3156844abe400fdb9d28b9a, type: 3}
      propertyPath: color.g
      value: 0.30440703
      objectReference: {fileID: 0}
    - target: {fileID: 5194079209393281617, guid: 6a86c089e3156844abe400fdb9d28b9a, type: 3}
      propertyPath: color.r
      value: 0
      objectReference: {fileID: 0}
    - target: {fileID: 5194079209393281617, guid: 6a86c089e3156844abe400fdb9d28b9a, type: 3}
      propertyPath: foodType
      value: 1
      objectReference: {fileID: 0}
    - target: {fileID: 5194079209393281617, guid: 6a86c089e3156844abe400fdb9d28b9a, type: 3}
      propertyPath: foodInfo.score
      value: 15
      objectReference: {fileID: 0}
    - target: {fileID: 5194079209393281617, guid: 6a86c089e3156844abe400fdb9d28b9a, type: 3}
      propertyPath: foodInfo.color.a
      value: 1
      objectReference: {fileID: 0}
    - target: {fileID: 5194079209393281617, guid: 6a86c089e3156844abe400fdb9d28b9a, type: 3}
      propertyPath: foodInfo.color.b
      value: 0.62352943
      objectReference: {fileID: 0}
    - target: {fileID: 5194079209393281617, guid: 6a86c089e3156844abe400fdb9d28b9a, type: 3}
      propertyPath: foodInfo.color.g
      value: 0
      objectReference: {fileID: 0}
    - target: {fileID: 5194079209393281617, guid: 6a86c089e3156844abe400fdb9d28b9a, type: 3}
      propertyPath: foodInfo.color.r
      value: 0.03036847
      objectReference: {fileID: 0}
    - target: {fileID: 5194079209393281617, guid: 6a86c089e3156844abe400fdb9d28b9a, type: 3}
      propertyPath: foodInfo.foodType
      value: 1
      objectReference: {fileID: 0}
    - target: {fileID: 9163383101296605358, guid: 6a86c089e3156844abe400fdb9d28b9a, type: 3}
      propertyPath: m_Name
      value: Blue Food
      objectReference: {fileID: 0}
    - target: {fileID: 9163383101296605360, guid: 6a86c089e3156844abe400fdb9d28b9a, type: 3}
      propertyPath: m_Materials.Array.data[0]
      value: 
      objectReference: {fileID: 2100000, guid: 0f32d3d19b7d1614698df69cccd35d3c, type: 2}
    - target: {fileID: 9163383101296605362, guid: 6a86c089e3156844abe400fdb9d28b9a, type: 3}
      propertyPath: m_RootOrder
      value: 0
      objectReference: {fileID: 0}
    - target: {fileID: 9163383101296605362, guid: 6a86c089e3156844abe400fdb9d28b9a, type: 3}
      propertyPath: m_LocalPosition.x
      value: 0
      objectReference: {fileID: 0}
    - target: {fileID: 9163383101296605362, guid: 6a86c089e3156844abe400fdb9d28b9a, type: 3}
      propertyPath: m_LocalPosition.y
      value: 0
      objectReference: {fileID: 0}
    - target: {fileID: 9163383101296605362, guid: 6a86c089e3156844abe400fdb9d28b9a, type: 3}
      propertyPath: m_LocalPosition.z
      value: 0
      objectReference: {fileID: 0}
    - target: {fileID: 9163383101296605362, guid: 6a86c089e3156844abe400fdb9d28b9a, type: 3}
      propertyPath: m_LocalRotation.w
      value: 1
      objectReference: {fileID: 0}
    - target: {fileID: 9163383101296605362, guid: 6a86c089e3156844abe400fdb9d28b9a, type: 3}
      propertyPath: m_LocalRotation.x
      value: 0
      objectReference: {fileID: 0}
    - target: {fileID: 9163383101296605362, guid: 6a86c089e3156844abe400fdb9d28b9a, type: 3}
      propertyPath: m_LocalRotation.y
      value: 0
      objectReference: {fileID: 0}
    - target: {fileID: 9163383101296605362, guid: 6a86c089e3156844abe400fdb9d28b9a, type: 3}
      propertyPath: m_LocalRotation.z
      value: 0
      objectReference: {fileID: 0}
    - target: {fileID: 9163383101296605362, guid: 6a86c089e3156844abe400fdb9d28b9a, type: 3}
      propertyPath: m_LocalEulerAnglesHint.x
      value: 0
      objectReference: {fileID: 0}
    - target: {fileID: 9163383101296605362, guid: 6a86c089e3156844abe400fdb9d28b9a, type: 3}
      propertyPath: m_LocalEulerAnglesHint.y
      value: 0
      objectReference: {fileID: 0}
    - target: {fileID: 9163383101296605362, guid: 6a86c089e3156844abe400fdb9d28b9a, type: 3}
      propertyPath: m_LocalEulerAnglesHint.z
      value: 0
      objectReference: {fileID: 0}
    m_RemovedComponents: []
  m_SourcePrefab: {fileID: 100100000, guid: 6a86c089e3156844abe400fdb9d28b9a, type: 3}
